<?xml version="1.0" encoding="UTF-8"?>
{"comments":[{"player":{"shots_count":32,"twitter_screen_name":"moreirajon","avatar_url":"http://dribbble.s3.amazonaws.com/users/14521/avatars/original/dribble_avatar.png?1315196724","likes_received_count":5633,"name":"Jonathan Moreira","created_at":"2011/01/28 20:47:11 -0500","location":"Switzerland","following_count":90,"likes_count":562,"website_url":"http://www.moreira.ch","username":"jonathanmoreira","url":"http://dribbble.com/jonathanmoreira","rebounds_count":28,"draftees_count":2,"id":14521,"drafted_by_player_id":148,"followers_count":1764,"comments_received_count":388,"comments_count":205,"rebounds_received_count":29},"created_at":"2011/09/08 06:40:32 -0400","body":"Hey guys, I've finally launched my new portfolio!\n\nThe idea was to make a small one to present the three main fields I do in development and design. I'll send in the following days my resume and cover letter to a lot of different swiss companies. I hope I'll find a new exciting job. :D\n\nLet me know what you think, and if you want you can support me by clicking on the facebook like or twitter share button. :p\n\nHere's the url: http://www.moreira.ch \n\nAnd much thanks to <a href=\"http://dribbble.com/salleedesign\"> Jeremy Sallee</a> for the javascript/CSS tips.","likes_count":0,"id":656611},{"player":{"shots_count":90,"twitter_screen_name":"alanhornedotcom","avatar_url":"http://dribbble.s3.amazonaws.com/users/3949/avatars/original/avatar.jpg?1305130326","likes_received_count":546,"name":"Alan Horne","created_at":"2010/08/05 13:20:34 -0400","location":"Glasgow, Scotland","following_count":422,"likes_count":1672,"website_url":"http://www.alan-horne.com","username":"alanhornedotcom","url":"http://dribbble.com/alanhornedotcom","rebounds_count":25,"draftees_count":4,"id":3949,"drafted_by_player_id":643,"followers_count":189,"comments_received_count":249,"comments_count":526,"rebounds_received_count":23},"created_at":"2011/09/08 06:46:24 -0400","body":"Love the detail on the paper at the top, fantastic work mate.","likes_count":1,"id":656619},{"player":{"shots_count":70,"twitter_screen_name":"ionuss","avatar_url":"http://dribbble.s3.amazonaws.com/users/14501/avatars/original/ionuss.jpg?1305134829","likes_received_count":5617,"name":"Ionut Zamfir","created_at":"2011/01/28 17:53:44 -0500","location":"Bucharest, Romania","following_count":205,"likes_count":343,"website_url":"http://ionuss.ro","username":"ionuss","url":"http://dribbble.com/ionuss","rebounds_count":11,"draftees_count":0,"id":14501,"drafted_by_player_id":2633,"followers_count":1243,"comments_received_count":531,"comments_count":357,"rebounds_received_count":11},"created_at":"2011/09/08 06:51:23 -0400","body":"Looks awesome, man!","likes_count":1,"id":656623},{"player":{"shots_count":30,"twitter_screen_name":"ben_eb","avatar_url":"http://dribbble.s3.amazonaws.com/users/8053/avatars/original/ben2.jpg?1309967676","likes_received_count":84,"name":"Ben Briggs","created_at":"2011/01/12 16:30:46 -0500","location":"Leeds, England","following_count":260,"likes_count":283,"website_url":"http://netuncovered.com","username":"beneb","url":"http://dribbble.com/beneb","rebounds_count":15,"draftees_count":3,"id":8053,"drafted_by_player_id":388,"followers_count":45,"comments_received_count":60,"comments_count":242,"rebounds_received_count":3},"created_at":"2011/09/08 06:56:55 -0400","body":"Love that work/relax switch. Great job. :-)","likes_count":1,"id":656631},{"player":{"shots_count":9,"twitter_screen_name":"GTgraphic","avatar_url":"http://dribbble.s3.amazonaws.com/users/11236/avatars/original/229526_10150212398913407_801193406_6892830_2559658_n.jpg?1310904335","likes_received_count":322,"name":"Gert Tzafa","created_at":"2011/01/17 03:01:18 -0500","location":"Athens, Greece","following_count":80,"likes_count":293,"website_url":"http://gtgraphicdesign.com","username":"GTgraphic","url":"http://dribbble.com/GTgraphic","rebounds_count":2,"draftees_count":1,"id":11236,"drafted_by_player_id":3339,"followers_count":117,"comments_received_count":33,"comments_count":52,"rebounds_received_count":1},"created_at":"2011/09/08 06:59:18 -0400","body":"Nice portfolio Jonathan! Good luck man! ;)","likes_count":1,"id":656634},{"player":{"shots_count":32,"twitter_screen_name":"moreirajon","avatar_url":"http://dribbble.s3.amazonaws.com/users/14521/avatars/original/dribble_avatar.png?1315196724","likes_received_count":5633,"name":"Jonathan Moreira","created_at":"2011/01/28 20:47:11 -0500","location":"Switzerland","following_count":90,"likes_count":562,"website_url":"http://www.moreira.ch","username":"jonathanmoreira","url":"http://dribbble.com/jonathanmoreira","rebounds_count":28,"draftees_count":2,"id":14521,"drafted_by_player_id":148,"followers_count":1764,"comments_received_count":388,"comments_count":205,"rebounds_received_count":29},"created_at":"2011/09/08 07:00:50 -0400","body":"Thanks guys, you're awesome!","likes_count":0,"id":656638},{"player":{"shots_count":8,"twitter_screen_name":"@XTR_Design","avatar_url":"http://dribbble.s3.amazonaws.com/users/44209/avatars/original/twitterProfilePicture.png?1310909704","likes_received_count":96,"name":"Sz Szabolcs","created_at":"2011/07/07 03:13:43 -0400","location":null,"following_count":17,"likes_count":23,"website_url":"http://xtrdesign.com","username":"Cucu","url":"http://dribbble.com/Cucu","rebounds_count":0,"draftees_count":0,"id":44209,"drafted_by_player_id":4702,"followers_count":24,"comments_received_count":22,"comments_count":24,"rebounds_received_count":0},"created_at":"2011/09/08 07:29:51 -0400","body":"OMG! Absolutely the best portfolio site I've ever seen!","likes_count":1,"id":656668},{"player":{"shots_count":15,"twitter_screen_name":"sandropennisi","avatar_url":"http://dribbble.s3.amazonaws.com/users/1679/avatars/original/n1116203248_4580.jpg?1305129638","likes_received_count":334,"name":"Sandro Pennisi","created_at":"2010/03/25 23:54:05 -0400","location":"Bern, Switzerland","following_count":84,"likes_count":536,"website_url":"http://noidentity.ch","username":"sandropennisi","url":"http://dribbble.com/sandropennisi","rebounds_count":0,"draftees_count":4,"id":1679,"drafted_by_player_id":202,"followers_count":149,"comments_received_count":70,"comments_count":151,"rebounds_received_count":0},"created_at":"2011/09/08 07:30:46 -0400","body":"amazing work! I love the theme switcher, great idea :)","likes_count":1,"id":656671},{"player":{"shots_count":8,"twitter_screen_name":"JohanGeijer","avatar_url":"http://dribbble.s3.amazonaws.com/users/20427/avatars/original/jagamdam.jpg?1312212069","likes_received_count":100,"name":"Johan Geijer","created_at":"2011/02/28 14:34:41 -0500","location":"Amsterdam","following_count":37,"likes_count":116,"website_url":null,"username":"j.geijer","url":"http://dribbble.com/j.geijer","rebounds_count":1,"draftees_count":1,"id":20427,"drafted_by_player_id":8334,"followers_count":44,"comments_received_count":21,"comments_count":48,"rebounds_received_count":2},"created_at":"2011/09/08 07:31:07 -0400","body":"Droooolololol - stunning.","likes_count":1,"id":656672},{"player":{"shots_count":2,"twitter_screen_name":"scryus","avatar_url":"http://dribbble.s3.amazonaws.com/users/10018/avatars/original/me.png?1314750364","likes_received_count":23,"name":"Jack Doyle","created_at":"2011/01/13 15:59:46 -0500","location":"London, UK","following_count":51,"likes_count":58,"website_url":"http://www.scryus.net","username":"scryus","url":"http://dribbble.com/scryus","rebounds_count":0,"draftees_count":0,"id":10018,"drafted_by_player_id":5127,"followers_count":15,"comments_received_count":4,"comments_count":17,"rebounds_received_count":0},"created_at":"2011/09/08 07:42:13 -0400","body":"This is really cool, definitely one of the most responsive and engaging portfolios I've seen. Only thing I noticed was when you click on one of the subsections \"android, web, ios\" etc, should they not keep their active state? Just a thought, there's really not much to be picky about here!","likes_count":1,"id":656686},{"player":{"shots_count":26,"twitter_screen_name":"oykunyilmaz","avatar_url":"http://dribbble.s3.amazonaws.com/users/14827/avatars/original/photo copy.jpeg?1313500015","likes_received_count":775,"name":"♦ Oykun Yilmaz","created_at":"2011/01/30 17:07:12 -0500","location":"Manchester, UK","following_count":458,"likes_count":1044,"website_url":"http://oykun.com","username":"oykun","url":"http://dribbble.com/oykun","rebounds_count":14,"draftees_count":0,"id":14827,"drafted_by_player_id":7831,"followers_count":336,"comments_received_count":134,"comments_count":630,"rebounds_received_count":14},"created_at":"2011/09/08 07:44:31 -0400","body":"wow! stunning! love the work-relax switch idea :) ","likes_count":1,"id":656691},{"player":{"shots_count":79,"twitter_screen_name":"treks","avatar_url":"http://dribbble.s3.amazonaws.com/users/3729/avatars/original/4xavatar.png?1307719085","likes_received_count":2017,"name":"Anton Kudin","created_at":"2010/07/28 16:47:19 -0400","location":"Krasnodar, Russia","following_count":168,"likes_count":490,"website_url":"http://www.antonkudin.me","username":"treks","url":"http://dribbble.com/treks","rebounds_count":13,"draftees_count":3,"id":3729,"drafted_by_player_id":1207,"followers_count":530,"comments_received_count":299,"comments_count":301,"rebounds_received_count":5},"created_at":"2011/09/08 08:12:49 -0400","body":"umm how do i switch between apps?\ni clicked \"ios\" but i see only one app.","likes_count":1,"id":656728},{"player":{"shots_count":1,"twitter_screen_name":"GilbertoLenzi","avatar_url":"http://dribbble.s3.amazonaws.com/users/27273/avatars/original/me.jpg?1315229965","likes_received_count":10,"name":"Gilberto Lenzi","created_at":"2011/04/06 09:07:47 -0400","location":"London","following_count":44,"likes_count":10,"website_url":"http://www.gilbertolenzi.com","username":"gilbertolenzi","url":"http://dribbble.com/gilbertolenzi","rebounds_count":0,"draftees_count":0,"id":27273,"drafted_by_player_id":5127,"followers_count":9,"comments_received_count":3,"comments_count":6,"rebounds_received_count":0},"created_at":"2011/09/08 08:51:54 -0400","body":"Realy cool!\n\nOne tiny things, you need to remove the space inside the    div class=\"logo_name\" id=\"4\"\n\nthis because chrome render a blue underscore wich is ugly, just in front of your name.","likes_count":1,"id":656789},{"player":{"shots_count":14,"twitter_screen_name":"pixusdesign","avatar_url":"http://dribbble.s3.amazonaws.com/users/36837/avatars/original/avatar-final.png?1309145286","likes_received_count":536,"name":"Haziq Mir","created_at":"2011/05/24 10:21:52 -0400","location":"Srinagar, India","following_count":141,"likes_count":351,"website_url":"http://codecanyon.net/user/PixusDesign","username":"pixusdesign","url":"http://dribbble.com/pixusdesign","rebounds_count":3,"draftees_count":3,"id":36837,"drafted_by_player_id":6445,"followers_count":203,"comments_received_count":89,"comments_count":66,"rebounds_received_count":6},"created_at":"2011/09/08 09:11:55 -0400","body":"Maybe, the drop shadow on the links on the sidebar is a bit too large? Awesome work on the colors, BTW :)","likes_count":1,"id":656824},{"player":{"shots_count":12,"twitter_screen_name":"blakesbook","avatar_url":"http://dribbble.s3.amazonaws.com/users/41173/avatars/original/bb.jpg?1308663601","likes_received_count":48,"name":"Blake Rice","created_at":"2011/06/17 16:43:42 -0400","location":"Charlotte, NC","following_count":121,"likes_count":77,"website_url":"http://www.blakesbook.com","username":"blakesbook","url":"http://dribbble.com/blakesbook","rebounds_count":5,"draftees_count":0,"id":41173,"drafted_by_player_id":13955,"followers_count":20,"comments_received_count":13,"comments_count":19,"rebounds_received_count":4},"created_at":"2011/09/08 09:15:29 -0400","body":"Beautiful!","likes_count":1,"id":656829}],"total":31,"pages":3,"page":1,"per_page":15}